D:\develop\Prime\alex\src\main\java\pom\GooglePage.java
D:\develop\Prime\alex\src\main\java\util\Hook.java
D:\develop\Prime\alex\src\main\java\util\Tools.java
D:\develop\Prime\alex\src\main\java\steps\GoogleSteps.java
